ee417/hw1/partA/tb_four_bit_comparator.vcd
$date
	Fri Jan 31 20:23:00 2025
$end
$version
	Icarus Verilog
$end
$timescale
	1ps
$end
$scope module tb_four_bit_comparator $end
$var wire 1 ! lt $end
$var wire 1 " gt $end
$var wire 1 # eq $end
$var reg 4 $ a [3:0] $end
$var reg 4 % b [3:0] $end
$var integer 32 & i [31:0] $end
$var integer 32 ' j [31:0] $end
$scope module uut $end
$var wire 4 ( a [3:0] $end
$var wire 1 # a_equals_b $end
$var wire 1 " a_greater_than_b $end
$var wire 1 ! a_less_than_b $end
$var wire 4 ) b [3:0] $end
$var wire 1 * ms_lt $end
$var wire 1 + ms_gt $end
$var wire 1 , ms_eq $end
$var wire 1 - ls_lt $end
$var wire 1 . ls_gt $end
$var wire 1 / ls_eq $end
$scope module comp_high $end
$var wire 2 0 a [1:0] $end
$var wire 1 , a_equals_b $end
$var wire 1 + a_greater_than_b $end
$var wire 1 * a_less_than_b $end
$var wire 2 1 b [1:0] $end
$var wire 1 2 eq0 $end
$var wire 1 3 eq1 $end
$upscope $end
$scope module comp_low $end
$var wire 2 4 a [1:0] $end
$var wire 1 / a_equals_b $end
$var wire 1 . a_greater_than_b $end
$var wire 1 - a_less_than_b $end
$var wire 2 5 b [1:0] $end
$var wire 1 6 eq0 $end
$var wire 1 7 eq1 $end
$upscope $end
$upscope $end
$upscope $end
$enddefinitions $end
$comment Show the parameter values. $end
$dumpall
$end
#0
$dumpvars
17
16
b0 5
b0 4
13
12
b0 1
b0 0
1/
0.
0-
1,
0+
0*
b0 )
b0 (
b0 '
b0 &
b0 %
b0 $
1#
0"
0!
$end
#5000
0#
1!
0/
06
1-
b1 5
b1 %
b1 )
b1 '
#10000
07
16
b10 5
b10 %
b10 )
b10 '
#15000
06
b11 5
b11 %
b11 )
b11 '
#20000
0,
1/
02
1*
17
16
0-
b1 1
b0 5
b100 %
b100 )
b100 '
#25000
0/
06
1-
b1 5
b101 %
b101 )
b101 '
#30000
07
16
b10 5
b110 %
b110 )
b110 '
#35000
06
b11 5
b111 %
b111 )
b111 '
#40000
1/
03
12
17
16
0-
b10 1
b0 5
b1000 %
b1000 )
b1000 '
#45000
0/
06
1-
b1 5
b1001 %
b1001 )
b1001 '
#50000
07
16
b10 5
b1010 %
b1010 )
b1010 '
#55000
06
b11 5
b1011 %
b1011 )
b1011 '
#60000
1/
02
17
16
0-
b11 1
b0 5
b1100 %
b1100 )
b1100 '
#65000
0/
06
1-
b1 5
b1101 %
b1101 )
b1101 '
#70000
07
16
b10 5
b1110 %
b1110 )
b1110 '
#75000
06
b11 5
b1111 %
b1111 )
b1111 '
#80000
1"
1.
1,
13
12
0!
17
0*
0-
b0 1
b0 5
b1 4
b0 %
b0 )
b1 $
b1 (
b1 &
b0 '
#85000
0"
1#
0.
1/
16
b1 5
b1 %
b1 )
b1 '
#90000
0"
0#
1!
0.
07
0/
06
1-
b10 5
b10 %
b10 )
b10 '
#95000
16
b11 5
b11 %
b11 )
b11 '
#100000
1.
0,
02
1*
17
06
0-
b1 1
b0 5
b100 %
b100 )
b100 '
#105000
0.
1/
16
b1 5
b101 %
b101 )
b101 '
#110000
0.
07
0/
06
1-
b10 5
b110 %
b110 )
b110 '
#115000
16
b11 5
b111 %
b111 )
b111 '
#120000
1.
03
12
17
06
0-
b10 1
b0 5
b1000 %
b1000 )
b1000 '
#125000
0.
1/
16
b1 5
b1001 %
b1001 )
b1001 '
#130000
0.
07
0/
06
1-
b10 5
b1010 %
b1010 )
b1010 '
#135000
16
b11 5
b1011 %
b1011 )
b1011 '
#140000
1.
02
17
06
0-
b11 1
b0 5
b1100 %
b1100 )
b1100 '
#145000
0.
1/
16
b1 5
b1101 %
b1101 )
b1101 '
#150000
0.
07
0/
06
1-
b10 5
b1110 %
b1110 )
b1110 '
#155000
16
b11 5
b1111 %
b1111 )
b1111 '
#160000
1"
1,
13
12
0!
1.
0*
0-
b0 1
b0 5
b10 4
b0 %
b0 )
b10 $
b10 (
b10 &
b0 '
#165000
06
b1 5
b1 %
b1 )
b1 '
#170000
0"
1#
1/
16
0.
17
b10 5
b10 %
b10 )
b10 '
#175000
0#
1!
0/
06
1-
b11 5
b11 %
b11 )
b11 '
#180000
0"
0,
02
1*
16
0-
1.
07
b1 1
b0 5
b100 %
b100 )
b100 '
#185000
06
b1 5
b101 %
b101 )
b101 '
#190000
1/
16
0.
17
b10 5
b110 %
b110 )
b110 '
#195000
0/
06
1-
b11 5
b111 %
b111 )
b111 '
#200000
03
12
16
0-
1.
07
b10 1
b0 5
b1000 %
b1000 )
b1000 '
#205000
06
b1 5
b1001 %
b1001 )
b1001 '
#210000
1/
16
0.
17
b10 5
b1010 %
b1010 )
b1010 '
#215000
0/
06
1-
b11 5
b1011 %
b1011 )
b1011 '
#220000
02
16
0-
1.
07
b11 1
b0 5
b1100 %
b1100 )
b1100 '
#225000
06
b1 5
b1101 %
b1101 )
b1101 '
#230000
1/
16
0.
17
b10 5
b1110 %
b1110 )
b1110 '
#235000
0/
06
1-
b11 5
b1111 %
b1111 )
b1111 '
#240000
1"
1,
13
12
0!
0-
1.
0*
07
b0 1
b0 5
b11 4
b0 %
b0 )
b11 $
b11 (
b11 &
b0 '
#245000
16
b1 5
b1 %
b1 )
b1 '
#250000
17
06
b10 5
b10 %
b10 )
b10 '
#255000
0"
1#
0.
1/
16
b11 5
b11 %
b11 )
b11 '
#260000
0"
0,
1!
0#
02
1*
0/
1.
07
06
b1 1
b0 5
b100 %
b100 )
b100 '
#265000
16
b1 5
b101 %
b101 )
b101 '
#270000
17
06
b10 5
b110 %
b110 )
b110 '
#275000
0.
1/
16
b11 5
b111 %
b111 )
b111 '
#280000
03
12
0/
1.
07
06
b10 1
b0 5
b1000 %
b1000 )
b1000 '
#285000
16
b1 5
b1001 %
b1001 )
b1001 '
#290000
17
06
b10 5
b1010 %
b1010 )
b1010 '
#295000
0.
1/
16
b11 5
b1011 %
b1011 )
b1011 '
#300000
02
0/
1.
07
06
b11 1
b0 5
b1100 %
b1100 )
b1100 '
#305000
16
b1 5
b1101 %
b1101 )
b1101 '
#310000
17
06
b10 5
b1110 %
b1110 )
b1110 '
#315000
0.
1/
16
b11 5
b1111 %
b1111 )
b1111 '
#320000
1"
1+
13
0!
0*
b0 1
b0 5
b1 0
b0 4
b0 %
b0 )
b100 $
b100 (
b100 &
b0 '
#325000
0/
06
1-
b1 5
b1 %
b1 )
b1 '
#330000
07
16
b10 5
b10 %
b10 )
b10 '
#335000
06
b11 5
b11 %
b11 )
b11 '
#340000
0"
1#
0+
1/
1,
17
16
12
0-
b1 1
b0 5
b100 %
b100 )
b100 '
#345000
0#
1!
0/
06
1-
b1 5
b101 %
b101 )
b101 '
#350000
07
16
b10 5
b110 %
b110 )
b110 '
#355000
06
b11 5
b111 %
b111 )
b111 '
#360000
0"
0+
1/
03
0,
17
16
02
1*
0-
b10 1
b0 5
b1000 %
b1000 )
b1000 '
#365000
0/
06
1-
b1 5
b1001 %
b1001 )
b1001 '
#370000
07
16
b10 5
b1010 %
b1010 )
b1010 '
#375000
06
b11 5
b1011 %
b1011 )
b1011 '
#380000
1/
17
16
12
0-
b11 1
b0 5
b1100 %
b1100 )
b1100 '
#385000
0/
06
1-
b1 5
b1101 %
b1101 )
b1101 '
#390000
07
16
b10 5
b1110 %
b1110 )
b1110 '
#395000
06
b11 5
b1111 %
b1111 )
b1111 '
#400000
1"
1+
1.
13
0!
17
02
0*
0-
b0 1
b0 5
b1 4
b0 %
b0 )
b101 $
b101 (
b101 &
b0 '
#405000
0.
1/
16
b1 5
b1 %
b1 )
b1 '
#410000
0.
07
0/
06
1-
b10 5
b10 %
b10 )
b10 '
#415000
16
b11 5
b11 %
b11 )
b11 '
#420000
1"
1.
0+
1,
17
12
06
0-
b1 1
b0 5
b100 %
b100 )
b100 '
#425000
0"
1#
0.
1/
16
b1 5
b101 %
b101 )
b101 '
#430000
0"
0#
1!
0.
07
0/
06
1-
b10 5
b110 %
b110 )
b110 '
#435000
16
b11 5
b111 %
b111 )
b111 '
#440000
0"
1.
0+
03
0,
17
02
1*
06
0-
b10 1
b0 5
b1000 %
b1000 )
b1000 '
#445000
0.
1/
16
b1 5
b1001 %
b1001 )
b1001 '
#450000
0.
07
0/
06
1-
b10 5
b1010 %
b1010 )
b1010 '
#455000
16
b11 5
b1011 %
b1011 )
b1011 '
#460000
1.
17
12
06
0-
b11 1
b0 5
b1100 %
b1100 )
b1100 '
#465000
0.
1/
16
b1 5
b1101 %
b1101 )
b1101 '
#470000
0.
07
0/
06
1-
b10 5
b1110 %
b1110 )
b1110 '
#475000
16
b11 5
b1111 %
b1111 )
b1111 '
#480000
1"
1+
13
0!
1.
02
0*
0-
b0 1
b0 5
b10 4
b0 %
b0 )
b110 $
b110 (
b110 &
b0 '
#485000
06
b1 5
b1 %
b1 )
b1 '
#490000
1/
16
0.
17
b10 5
b10 %
b10 )
b10 '
#495000
0/
06
1-
b11 5
b11 %
b11 )
b11 '
#500000
0+
1,
16
0-
1.
12
07
b1 1
b0 5
b100 %
b100 )
b100 '
#505000
06
b1 5
b101 %
b101 )
b101 '
#510000
0"
1#
1/
16
0.
17
b10 5
b110 %
b110 )
b110 '
#515000
0#
1!
0/
06
1-
b11 5
b111 %
b111 )
b111 '
#520000
0"
0+
03
0,
16
0-
1.
02
1*
07
b10 1
b0 5
b1000 %
b1000 )
b1000 '
#525000
06
b1 5
b1001 %
b1001 )
b1001 '
#530000
1/
16
0.
17
b10 5
b1010 %
b1010 )
b1010 '
#535000
0/
06
1-
b11 5
b1011 %
b1011 )
b1011 '
#540000
16
0-
1.
12
07
b11 1
b0 5
b1100 %
b1100 )
b1100 '
#545000
06
b1 5
b1101 %
b1101 )
b1101 '
#550000
1/
16
0.
17
b10 5
b1110 %
b1110 )
b1110 '
#555000
0/
06
1-
b11 5
b1111 %
b1111 )
b1111 '
#560000
1"
1+
13
0!
0-
1.
02
0*
07
b0 1
b0 5
b11 4
b0 %
b0 )
b111 $
b111 (
b111 &
b0 '
#565000
16
b1 5
b1 %
b1 )
b1 '
#570000
17
06
b10 5
b10 %
b10 )
b10 '
#575000
0.
1/
16
b11 5
b11 %
b11 )
b11 '
#580000
0+
1,
0/
1.
12
07
06
b1 1
b0 5
b100 %
b100 )
b100 '
#585000
16
b1 5
b101 %
b101 )
b101 '
#590000
17
06
b10 5
b110 %
b110 )
b110 '
#595000
0"
1#
0.
1/
16
b11 5
b111 %
b111 )
b111 '
#600000
0"
0+
0#
03
0,
1!
0/
1.
02
1*
07
06
b10 1
b0 5
b1000 %
b1000 )
b1000 '
#605000
16
b1 5
b1001 %
b1001 )
b1001 '
#610000
17
06
b10 5
b1010 %
b1010 )
b1010 '
#615000
0.
1/
16
b11 5
b1011 %
b1011 )
b1011 '
#620000
0/
1.
12
07
06
b11 1
b0 5
b1100 %
b1100 )
b1100 '
#625000
16
b1 5
b1101 %
b1101 )
b1101 '
#630000
17
06
b10 5
b1110 %
b1110 )
b1110 '
#635000
0.
1/
16
b11 5
b1111 %
b1111 )
b1111 '
#640000
1"
0!
1+
0*
b0 1
b0 5
b10 0
b0 4
b0 %
b0 )
b1000 $
b1000 (
b1000 &
b0 '
#645000
0/
06
1-
b1 5
b1 %
b1 )
b1 '
#650000
07
16
b10 5
b10 %
b10 )
b10 '
#655000
06
b11 5
b11 %
b11 )
b11 '
#660000
1/
02
17
16
0-
b1 1
b0 5
b100 %
b100 )
b100 '
#665000
0/
06
1-
b1 5
b101 %
b101 )
b101 '
#670000
07
16
b10 5
b110 %
b110 )
b110 '
#675000
06
b11 5
b111 %
b111 )
b111 '
#680000
1#
0"
1/
1,
12
0+
17
16
13
0-
b10 1
b0 5
b1000 %
b1000 )
b1000 '
#685000
0#
1!
0/
06
1-
b1 5
b1001 %
b1001 )
b1001 '
#690000
07
16
b10 5
b1010 %
b1010 )
b1010 '
#695000
06
b11 5
b1011 %
b1011 )
b1011 '
#700000
0,
1/
02
1*
17
16
0-
b11 1
b0 5
b1100 %
b1100 )
b1100 '
#705000
0/
06
1-
b1 5
b1101 %
b1101 )
b1101 '
#710000
07
16
b10 5
b1110 %
b1110 )
b1110 '
#715000
06
b11 5
b1111 %
b1111 )
b1111 '
#720000
1.
0!
1"
12
0*
1+
17
03
0-
b0 1
b0 5
b1 4
b0 %
b0 )
b1001 $
b1001 (
b1001 &
b0 '
#725000
0.
1/
16
b1 5
b1 %
b1 )
b1 '
#730000
0.
07
0/
06
1-
b10 5
b10 %
b10 )
b10 '
#735000
16
b11 5
b11 %
b11 )
b11 '
#740000
1.
02
17
06
0-
b1 1
b0 5
b100 %
b100 )
b100 '
#745000
0.
1/
16
b1 5
b101 %
b101 )
b101 '
#750000
0.
07
0/
06
1-
b10 5
b110 %
b110 )
b110 '
#755000
16
b11 5
b111 %
b111 )
b111 '
#760000
1.
1"
1,
12
0+
17
13
06
0-
b10 1
b0 5
b1000 %
b1000 )
b1000 '
#765000
0"
1#
0.
1/
16
b1 5
b1001 %
b1001 )
b1001 '
#770000
0"
0#
1!
0.
07
0/
06
1-
b10 5
b1010 %
b1010 )
b1010 '
#775000
16
b11 5
b1011 %
b1011 )
b1011 '
#780000
1.
0,
02
1*
17
06
0-
b11 1
b0 5
b1100 %
b1100 )
b1100 '
#785000
0.
1/
16
b1 5
b1101 %
b1101 )
b1101 '
#790000
0.
07
0/
06
1-
b10 5
b1110 %
b1110 )
b1110 '
#795000
16
b11 5
b1111 %
b1111 )
b1111 '
#800000
0!
1"
12
0*
1+
1.
03
0-
b0 1
b0 5
b10 4
b0 %
b0 )
b1010 $
b1010 (
b1010 &
b0 '
#805000
06
b1 5
b1 %
b1 )
b1 '
#810000
1/
16
0.
17
b10 5
b10 %
b10 )
b10 '
#815000
0/
06
1-
b11 5
b11 %
b11 )
b11 '
#820000
02
16
0-
1.
07
b1 1
b0 5
b100 %
b100 )
b100 '
#825000
06
b1 5
b101 %
b101 )
b101 '
#830000
1/
16
0.
17
b10 5
b110 %
b110 )
b110 '
#835000
0/
06
1-
b11 5
b111 %
b111 )
b111 '
#840000
1,
12
0+
16
0-
1.
13
07
b10 1
b0 5
b1000 %
b1000 )
b1000 '
#845000
06
b1 5
b1001 %
b1001 )
b1001 '
#850000
0"
1#
1/
16
0.
17
b10 5
b1010 %
b1010 )
b1010 '
#855000
0#
1!
0/
06
1-
b11 5
b1011 %
b1011 )
b1011 '
#860000
0"
0,
02
1*
16
0-
1.
07
b11 1
b0 5
b1100 %
b1100 )
b1100 '
#865000
06
b1 5
b1101 %
b1101 )
b1101 '
#870000
1/
16
0.
17
b10 5
b1110 %
b1110 )
b1110 '
#875000
0/
06
1-
b11 5
b1111 %
b1111 )
b1111 '
#880000
0!
1"
12
0*
1+
0-
1.
03
07
b0 1
b0 5
b11 4
b0 %
b0 )
b1011 $
b1011 (
b1011 &
b0 '
#885000
16
b1 5
b1 %
b1 )
b1 '
#890000
17
06
b10 5
b10 %
b10 )
b10 '
#895000
0.
1/
16
b11 5
b11 %
b11 )
b11 '
#900000
02
0/
1.
07
06
b1 1
b0 5
b100 %
b100 )
b100 '
#905000
16
b1 5
b101 %
b101 )
b101 '
#910000
17
06
b10 5
b110 %
b110 )
b110 '
#915000
0.
1/
16
b11 5
b111 %
b111 )
b111 '
#920000
1,
12
0+
0/
1.
13
07
06
b10 1
b0 5
b1000 %
b1000 )
b1000 '
#925000
16
b1 5
b1001 %
b1001 )
b1001 '
#930000
17
06
b10 5
b1010 %
b1010 )
b1010 '
#935000
0"
1#
0.
1/
16
b11 5
b1011 %
b1011 )
b1011 '
#940000
0"
0,
1!
0#
02
1*
0/
1.
07
06
b11 1
b0 5
b1100 %
b1100 )
b1100 '
#945000
16
b1 5
b1101 %
b1101 )
b1101 '
#950000
17
06
b10 5
b1110 %
b1110 )
b1110 '
#955000
0.
1/
16
b11 5
b1111 %
b1111 )
b1111 '
#960000
0!
1"
0*
1+
03
b0 1
b0 5
b11 0
b0 4
b0 %
b0 )
b1100 $
b1100 (
b1100 &
b0 '
#965000
0/
06
1-
b1 5
b1 %
b1 )
b1 '
#970000
07
16
b10 5
b10 %
b10 )
b10 '
#975000
06
b11 5
b11 %
b11 )
b11 '
#980000
1/
17
16
12
0-
b1 1
b0 5
b100 %
b100 )
b100 '
#985000
0/
06
1-
b1 5
b101 %
b101 )
b101 '
#990000
07
16
b10 5
b110 %
b110 )
b110 '
#995000
06
b11 5
b111 %
b111 )
b111 '
#1000000
1/
17
16
13
02
0-
b10 1
b0 5
b1000 %
b1000 )
b1000 '
#1005000
0/
06
1-
b1 5
b1001 %
b1001 )
b1001 '
#1010000
07
16
b10 5
b1010 %
b1010 )
b1010 '
#1015000
06
b11 5
b1011 %
b1011 )
b1011 '
#1020000
0"
1#
0+
1/
1,
17
16
12
0-
b11 1
b0 5
b1100 %
b1100 )
b1100 '
#1025000
0#
1!
0/
06
1-
b1 5
b1101 %
b1101 )
b1101 '
#1030000
07
16
b10 5
b1110 %
b1110 )
b1110 '
#1035000
06
b11 5
b1111 %
b1111 )
b1111 '
#1040000
1.
1"
0!
0,
1+
17
03
02
0-
b0 1
b0 5
b1 4
b0 %
b0 )
b1101 $
b1101 (
b1101 &
b0 '
#1045000
0.
1/
16
b1 5
b1 %
b1 )
b1 '
#1050000
0.
07
0/
06
1-
b10 5
b10 %
b10 )
b10 '
#1055000
16
b11 5
b11 %
b11 )
b11 '
#1060000
1.
17
12
06
0-
b1 1
b0 5
b100 %
b100 )
b100 '
#1065000
0.
1/
16
b1 5
b101 %
b101 )
b101 '
#1070000
0.
07
0/
06
1-
b10 5
b110 %
b110 )
b110 '
#1075000
16
b11 5
b111 %
b111 )
b111 '
#1080000
1.
17
13
02
06
0-
b10 1
b0 5
b1000 %
b1000 )
b1000 '
#1085000
0.
1/
16
b1 5
b1001 %
b1001 )
b1001 '
#1090000
0.
07
0/
06
1-
b10 5
b1010 %
b1010 )
b1010 '
#1095000
16
b11 5
b1011 %
b1011 )
b1011 '
#1100000
1"
1.
0+
1,
17
12
06
0-
b11 1
b0 5
b1100 %
b1100 )
b1100 '
#1105000
0"
1#
0.
1/
16
b1 5
b1101 %
b1101 )
b1101 '
#1110000
0"
0#
1!
0.
07
0/
06
1-
b10 5
b1110 %
b1110 )
b1110 '
#1115000
16
b11 5
b1111 %
b1111 )
b1111 '
#1120000
1"
0!
0,
1+
1.
03
02
0-
b0 1
b0 5
b10 4
b0 %
b0 )
b1110 $
b1110 (
b1110 &
b0 '
#1125000
06
b1 5
b1 %
b1 )
b1 '
#1130000
1/
16
0.
17
b10 5
b10 %
b10 )
b10 '
#1135000
0/
06
1-
b11 5
b11 %
b11 )
b11 '
#1140000
16
0-
1.
12
07
b1 1
b0 5
b100 %
b100 )
b100 '
#1145000
06
b1 5
b101 %
b101 )
b101 '
#1150000
1/
16
0.
17
b10 5
b110 %
b110 )
b110 '
#1155000
0/
06
1-
b11 5
b111 %
b111 )
b111 '
#1160000
16
0-
1.
13
02
07
b10 1
b0 5
b1000 %
b1000 )
b1000 '
#1165000
06
b1 5
b1001 %
b1001 )
b1001 '
#1170000
1/
16
0.
17
b10 5
b1010 %
b1010 )
b1010 '
#1175000
0/
06
1-
b11 5
b1011 %
b1011 )
b1011 '
#1180000
0+
1,
16
0-
1.
12
07
b11 1
b0 5
b1100 %
b1100 )
b1100 '
#1185000
06
b1 5
b1101 %
b1101 )
b1101 '
#1190000
0"
1#
1/
16
0.
17
b10 5
b1110 %
b1110 )
b1110 '
#1195000
0#
1!
0/
06
1-
b11 5
b1111 %
b1111 )
b1111 '
#1200000
0!
1"
0,
1+
0-
1.
03
02
07
b0 1
b0 5
b11 4
b0 %
b0 )
b1111 $
b1111 (
b1111 &
b0 '
#1205000
16
b1 5
b1 %
b1 )
b1 '
#1210000
17
06
b10 5
b10 %
b10 )
b10 '
#1215000
0.
1/
16
b11 5
b11 %
b11 )
b11 '
#1220000
0/
1.
12
07
06
b1 1
b0 5
b100 %
b100 )
b100 '
#1225000
16
b1 5
b101 %
b101 )
b101 '
#1230000
17
06
b10 5
b110 %
b110 )
b110 '
#1235000
0.
1/
16
b11 5
b111 %
b111 )
b111 '
#1240000
0/
1.
13
02
07
06
b10 1
b0 5
b1000 %
b1000 )
b1000 '
#1245000
16
b1 5
b1001 %
b1001 )
b1001 '
#1250000
17
06
b10 5
b1010 %
b1010 )
b1010 '
#1255000
0.
1/
16
b11 5
b1011 %
b1011 )
b1011 '
#1260000
0+
1,
0/
1.
12
07
06
b11 1
b0 5
b1100 %
b1100 )
b1100 '
#1265000
16
b1 5
b1101 %
b1101 )
b1101 '
#1270000
17
06
b10 5
b1110 %
b1110 )
b1110 '
#1275000
0"
1#
0.
1/
16
b11 5
b1111 %
b1111 )
b1111 '
#1280000
b10000 &
b10000 '
